[
	{"prenom":"Jean", "nom":"Georges", "age":30},
	{"prenom":"Paul", "nom":"Wu", "age":17},
	{"prenom":"Vincent", "nom":"El Mohamet", "age":43},
	{"prenom":"Marie", "nom":"Pirlot", "age":70},
	{"prenom":"Sarah", "nom":"Georges", "age":7},
	{"prenom":"Marie", "nom":"Gaultier", "age":57},
	{"prenom":"Marie", "nom":"Van den Bore", "age":54},
	{"prenom":"Marie", "nom":"Gaulois", "age":54},
	{"prenom":"Marie", "nom":"Curie", "age":94},
  {"prenom":"Pierre", "nom":"Curie", "age":96},
  {"prenom":"Marc-andré", "nom":"Gilles", "age":12}

]
